{
  "meme": {
    "type": "APL",
    "version": "1.0",
    "theme": "auto",
    "import": [
      {
        "name": "alexa-layouts",
        "version": "1.0.0"
      }
    ],
    "mainTemplate": {
      "parameters": [
        "payload"
      ],
      "items": [
        {
          "when": "${viewport.shape == 'round'}",
          "type": "Container",
          "direction": "column",
          "items": [
            {
              "type": "Image",
              "source": "${payload.data.background}",
              "scale": "best-fill",
              "position": "absolute",
              "width": "100vw",
              "overlayColor": "#0000007F",
              "height": "100vh"
            },
            {
              "type": "AlexaHeader",
              "headerTitle": "${payload.data.title}",
              "headerAttributionImage": "${payload.data.logoUrl}",
              "headerBackgroundColor": "#00000000"
            },
            {
              "type": "Container",
              "grow": 1,
              "alignItems": "center",
              "justifyContent": "center",
              "items": [
                {
                  "height": "${payload.data.image.small.height}",
                  "width": "380",
                  "type": "ScrollView",
                  "item": [
                    {
                      "type": "Image",
                      "source": "${payload.data.image.small.url}",
                      "width": "${payload.data.image.small.width}",
                      "height": "${payload.data.image.small.height + 300}",
                      "align": "top"
                    }
                  ]
                }
              ]
            }
          ]
        },
        {
          "type": "Container",
          "width": "100vw",
          "height": "100vh",
          "items": [
            {
              "type": "Image",
              "source": "${payload.data.background}",
              "position": "absolute",
              "width": "100%",
              "height": "100%",
              "overlayColor": "#0000007F",
              "scale": "best-fill"
            },
            {
              "type": "AlexaHeader",
              "headerTitle": "${payload.data.title}",
              "headerAttributionImage": "${payload.data.logoUrl}"
            },
            {
              "type": "Container",
              "height": "75vh",
              "width": "90vw",
              "justifyContent": "center",
              "alignSelf": "center",
              "items": [
                {
                  "height": "100%",
                  "width": "100%",
                  "type": "ScrollView",
                  "id": "mediumImage",
                  "when": "${viewport.pixelWidth >= 1024 && viewport.pixelWidth < 1280}",
                  "item": [
                    {
                      "type": "Image",
                      "width": "${payload.data.image.medium.width}",
                      "height": "${payload.data.image.medium.height}",
                      "source": "${payload.data.image.medium.url}",
                      "align": "center"
                    }
                  ]
                },
                {
                  "height": "100%",
                  "width": "100%",
                  "type": "ScrollView",
                  "id": "largeImage",
                  "when": "${viewport.pixelWidth >= 1280 && viewport.pixelWidth < 1920}",
                  "item": [
                    {
                      "type": "Image",
                      "width": "${payload.data.image.large.width}",
                      "height": "${payload.data.image.large.height}",
                      "source": "${payload.data.image.large.url}",
                      "align": "center"
                    }
                  ]
                },
                {
                  "height": "100%",
                  "width": "100%",
                  "type": "ScrollView",
                  "id": "extraLargeImage",
                  "when": "${viewport.pixelWidth >= 1920}",
                  "item": [
                    {
                      "type": "Image",
                      "width": "${payload.data.image.extraLarge.width}",
                      "height": "${payload.data.image.extraLarge.height}",
                      "source": "${payload.data.image.extraLarge.url}",
                      "align": "center"
                    }
                  ]
                }
              ]
            }
          ]
        }
      ]
    },
    "layouts": {}
  },
  "text": {
    "type": "APL",
    "version": "1.0",
    "theme": "dark",
    "import": [
      {
        "name": "alexa-layouts",
        "version": "1.0.0"
      }
    ],
    "layouts": {},
    "mainTemplate": {
      "description": "********* Full-screen background image **********",
      "parameters": [
        "payload"
      ],
      "items": [
        {
          "when": "${viewport.shape == 'round'}",
          "type": "Container",
          "direction": "column",
          "items": [
            {
              "type": "Image",
              "source": "${payload.data.background}",
              "position": "absolute",
              "width": "100vw",
              "height": "100vh",
              "overlayColor": "#0000007F",
              "scale": "best-fill"
            },
            {
              "type": "AlexaHeader",
              "headerTitle": "${payload.data.title}",
              "headerAttributionImage": "${payload.data.logoUrl}"
            },
            {
              "type": "Container",
              "grow": 1,
              "paddingLeft": "@marginLeft",
              "paddingRight": "@marginRight",
              "paddingBottom": "@marginBottom",
              "items": [
                {
                  "type": "ScrollView",
                  "height": "300",
                  "item": [
                    {
                      "type": "Text",
                      "style": "textStyleBody",
                      "fontSize": "@textSizeBody",
                      "text": "${payload.data.hint} <br>"
                    }
                  ]
                }
              ]
            }
          ]
        },
        {
          "type": "Container",
          "height": "100vh",
          "items": [
            {
              "type": "Image",
              "source": "${payload.data.background}",
              "position": "absolute",
              "width": "100vw",
              "height": "100vh",
              "overlayColor": "#0000007F",
              "scale": "best-fill"
            },
            {
              "type": "AlexaHeader",
              "headerTitle": "${payload.data.title}",
              "headerAttributionImage": "${payload.data.logoUrl}"
            },
            {
              "type": "Container",
              "paddingLeft": "@marginLeft",
              "paddingRight": "@marginRight",
              "height": "75vh",
              "items": [
                {
                  "type": "ScrollView",
                  "height": "100%",
                  "item": [
                    {
                      "type": "Text",
                      "style": "textStyleBody",
                      "fontSize": "@textSizeBody",
                      "text": "${payload.data.content}  <br>"
                    }
                  ]
                }
              ]
            }
          ]
        }
      ]
    },
    "resources": [
      {
        "description": "Stock color for the light theme",
        "colors": {
          "colorTextPrimary": "#151920"
        }
      },
      {
        "description": "Stock color for the dark theme",
        "when": "${viewport.theme == 'dark'}",
        "colors": {
          "colorTextPrimary": "#f0f1ef"
        }
      },
      {
        "description": "Standard font sizes",
        "dimensions": {
          "textSizeBody": 42,
          "textSizePrimary": 27,
          "textSizeSecondary": 23,
          "textSizeSecondaryHint": 25
        }
      },
      {
        "description": "Common spacing values",
        "dimensions": {
          "spacingThin": 6,
          "spacingSmall": 12,
          "spacingMedium": 24,
          "spacingLarge": 48,
          "spacingExtraLarge": 72
        }
      },
      {
        "description": "Common margins and padding",
        "dimensions": {
          "marginTop": 40,
          "marginLeft": 60,
          "marginRight": 60,
          "marginBottom": 40
        }
      }
    ],
    "styles": {
      "textStyleBase": {
        "description": "Base font description; set color and core font family",
        "values": [
          {
            "color": "@colorTextPrimary",
            "fontFamily": "Amazon Ember"
          }
        ]
      },
      "textStyleBase0": {
        "description": "Thin version of basic font",
        "extend": "textStyleBase",
        "values": {
          "fontWeight": "100"
        }
      },
      "textStyleBase1": {
        "description": "Light version of basic font",
        "extend": "textStyleBase",
        "values": {
          "fontWeight": "300"
        }
      },
      "mixinBody": {
        "values": {
          "fontSize": "@textSizeBody"
        }
      },
      "mixinPrimary": {
        "values": {
          "fontSize": "@textSizePrimary"
        }
      },
      "mixinSecondary": {
        "values": {
          "fontSize": "@textSizeSecondary"
        }
      },
      "textStylePrimary": {
        "extend": [
          "textStyleBase1",
          "mixinPrimary"
        ]
      },
      "textStyleSecondary": {
        "extend": [
          "textStyleBase0",
          "mixinSecondary"
        ]
      },
      "textStyleBody": {
        "extend": [
          "textStyleBase1",
          "mixinBody"
        ]
      },
      "textStyleSecondaryHint": {
        "values": {
          "fontFamily": "Bookerly",
          "fontStyle": "italic",
          "fontSize": "@textSizeSecondaryHint",
          "color": "@colorTextPrimary"
        }
      }
    }
  }
}